…
## Tidy Data

How can we get the `phosphate` data into a tidy format? We should have
one column for optical density (the y value) and, because every
measurement should have its own row, we also need a column to tell us
what replicate each measurement is. There is a special helper function
in `tidyverse` to help us do this and that is `pivot_longer()`:

``` r
phosphate_long <- pivot_longer(phosphate, rep1:rep5, names_to = "replicate", values_to = "OD600nm")
phosphate_long
```

    ## # A tibble: 30 × 4
    ##    sample     conc_uM replicate OD600nm
    ##    <chr>        <dbl> <chr>       <dbl>
    ##  1 Standard_1       0 rep1        0.162
    ##  2 Standard_1       0 rep2        0.112
    ##  3 Standard_1       0 rep3        0.195
    ##  4 Standard_1       0 rep4        0.11 
    ##  5 Standard_1       0 rep5        0.129
    ##  6 Standard_2     120 rep1        0.171
    ##  7 Standard_2     120 rep2        0.167
    ##  8 Standard_2     120 rep3        0.15 
    ##  9 Standard_2     120 rep4        0.176
    ## 10 Standard_2     120 rep5        0.155
    ## # … with 20 more rows
…
